Additional rbison functionality • rOpenSci: rbison
…
#> [1] "Arctos"
#> 
#> $resources
#> [1] "Bird tissues, Division of Genomic Resources, UNM, Albuquerque, NM."  
#> [2] "Fish tissues, Division of Genomic Resources, UNM, Albuquerque, NM."  
#> [3] "Harold W. Manter Laboratory of Parasitology Collection"              
#> [4] "Kenelm W. Philip lepidoptera collection"                             
#> [5] "KNWR Entomology Collection"                                          
#> [6] "KNWR Herbarium Collection"                                           
#> [7] "Mammal tissues, Division of Genomic Resources, UNM, Albuquerque, NM."
#> [8] "STAMP seabird egg collection"                                        
#> [9] "U. S. National Parasite Collection's holdings from Robert L. Rausch" 
#> 
#> $data
#> # A tibble: 54 x 23
#>    providerId resourceId lastUpdated todayTotals currentWeekTotals
#>    <chr>      <chr>      <lgl>             <int>             <int>
#>  1 177        177,973    NA                    0                 0
#>  2 177        177,973    NA                    0                 0
#>  3 177        177,973    NA                    0                 0
#>  4 177        177,973    NA                    0                 0
#>  5 177        177,973    NA                    0                 0
#>  6 177        177,973    NA                    0                 0
#>  7 177        177,988    NA                    0                 0
#>  8 177        177,988    NA                    0                 0
#>  9 177        177,988    NA                    0                 0
#> 10 177        177,988    NA                    0                 0
#> # … with 44 more rows, and 18 more variables: yesterdayTotals <int>,
#> #   lastWeekTotals <int>, janTotals <int>, febTotals <int>, marTotals <int>,
#> #   aprTotals <int>, mayTotals <int>, junTotals <int>, julTotals <int>,
#> #   augTotals <int>, sepTotals <int>, octTotals <int>, novTotals <int>,
#> #   decTotals <int>, currentMonthTotals <int>, resource <named list>, id <lgl>,
#> #   type <chr>
…
out$ZooKeys
#> $name
#> [1] "ZooKeys"
#> 
#> $resources
#> [1] "Localities for the arachnid genus Acuclavella (Opiliones, Ceratolasmatidae)"                                                                                                             
#> [2] "Megophthalmidia_of_North_America"                                                                                                                                                        
#> [3] "USBombus, contemporary survey data of North American bumble bees (Hymenoptera,  Apidae, Bombus) distributed in the United States"                                                        
#> [4] "Western Palaearctic Ectoedemia (Zimmermannia) Hering and Ectoedemia Busck s. str. (Lepidoptera: Nepticulidae): five new species and new data on distribution, hostplants and recognition"
#> 
#> $data
#> # A tibble: 24 x 23
#>    providerId resourceId lastUpdated todayTotals currentWeekTotals
#>    <chr>      <chr>      <lgl>             <int>             <int>
#>  1 300        300,15002  NA                27368             29097
#>  2 300        300,15002  NA                27368             29097
#>  3 300        300,15002  NA                27368             29097
#>  4 300        300,15002  NA                27368             29097
#>  5 300        300,15002  NA                27368             29097
#>  6 300        300,15002  NA                27368             29097
#>  7 300        300,201848 NA                27400             29129
#>  8 300        300,201848 NA                27400             29129
#>  9 300        300,201848 NA                27400             29129
#> 10 300        300,201848 NA                27400             29129
#> # … with 14 more rows, and 18 more variables: yesterdayTotals <int>,
#> #   lastWeekTotals <int>, janTotals <int>, febTotals <int>, marTotals <int>,
#> #   aprTotals <int>, mayTotals <int>, junTotals <int>, julTotals <int>,
#> #   augTotals <int>, sepTotals <int>, octTotals <int>, novTotals <int>,
#> #   decTotals <int>, currentMonthTotals <int>, resource <named list>, id <lgl>,
#> #   type <chr>
…
